DataViz Assignment
…
As we can see, pokrally and kronosstar seems to have the most frequency and that they are hashtags. To investigate.

Investigate pokrally.

# Filtering out pokrally hashtag (ht1_)
ht1_df4 <- df4 %>%
  filter(str_detect(message, '#pokrally'))

ht1_df4

# A tibble: 1,399 x 7
   type   dt    author   message           latitude longitude location
   <chr>  <chr> <chr>    <chr>                <dbl>     <dbl> <chr>   
 1 mbdata 17:0~ ourcoun~ pok rally in the~       NA        NA <NA>    
 2 mbdata 17:0~ KronosQ~ success is walki~       NA        NA <NA>    
 3 mbdata 17:0~ KronosQ~ a person who nev~       NA        NA <NA>    
 4 mbdata 17:0~ KronosQ~ the only person ~       NA        NA <NA>    
 5 mbdata 17:0~ KronosQ~ knowledge is bei~       NA        NA <NA>    
 6 mbdata 17:0~ KronosQ~ the meaning of l~       NA        NA <NA>    
 7 mbdata 17:0~ KronosQ~ if you're going ~       NA        NA <NA>    
 8 mbdata 17:0~ KronosQ~ you miss 100% of~       NA        NA <NA>    
 9 mbdata 17:0~ KronosQ~ you may only suc~       NA        NA <NA>    
10 mbdata 17:0~ KronosQ~ i didnt fail the~       NA        NA <NA>    
# ... with 1,389 more rows
…
# Check pokrally hashtag after removing KronosQuoth
ht1_df4 <- df4 %>%
  filter(str_detect(message, '#pokrally'))
ht1_df4

# A tibble: 134 x 7
   type   dt    author   message           latitude longitude location
   <chr>  <chr> <chr>    <chr>                <dbl>     <dbl> <chr>   
 1 mbdata 17:0~ ourcoun~ "pok rally in th~     NA        NA   <NA>    
 2 mbdata 17:0~ choconi~ "marek - terrori~     NA        NA   <NA>    
 3 mbdata 17:0~ wiseWor~ "rt @ourcountryo~     NA        NA   <NA>    
 4 mbdata 17:1~ POK      "show your suppo~     NA        NA   <NA>    
 5 mbdata 17:1~ choconi~ "lovely words - ~     NA        NA   <NA>    
 6 mbdata 17:1~ anarege~ "sylvia marek is~     NA        NA   <NA>    
 7 mbdata 17:1~ rnbwBri~ "rt @choconibbs ~     NA        NA   <NA>    
 8 mbdata 17:1~ sarajane "rt @pok show yo~     NA        NA   <NA>    
 9 mbdata 17:1~ truthfo~ "cant wait to he~     36.1      24.9 <NA>    
10 mbdata 17:1~ choconi~ "blather-blather~     NA        NA   <NA>    
# ... with 124 more rows
…
df1 <- df1 %>%
  filter(!str_detect(message, 'rt @'))
df2 <- df2 %>%
  filter(!str_detect(message, 'rt @'))
df3 <- df3%>%
  filter(!str_detect(message, 'rt @'))
df4 <- df4%>%
  filter(!str_detect(message, 'rt @'))

# Check pokrally hashtag after removing RTs
ht1_df4 <- df4 %>%
  filter(str_detect(message, '#pokrally'))
ht1_df4

# A tibble: 86 x 7
   type   dt    author   message           latitude longitude location
   <chr>  <chr> <chr>    <chr>                <dbl>     <dbl> <chr>   
 1 mbdata 17:0~ ourcoun~ "pok rally in th~     NA        NA   <NA>    
 2 mbdata 17:0~ choconi~ "marek - terrori~     NA        NA   <NA>    
 3 mbdata 17:1~ POK      "show your suppo~     NA        NA   <NA>    
 4 mbdata 17:1~ choconi~ "lovely words - ~     NA        NA   <NA>    
 5 mbdata 17:1~ anarege~ "sylvia marek is~     NA        NA   <NA>    
 6 mbdata 17:1~ truthfo~ "cant wait to he~     36.1      24.9 <NA>    
 7 mbdata 17:1~ choconi~ "blather-blather~     NA        NA   <NA>    
 8 mbdata 17:1~ truccot~ "sylvia rocks! y~     36.1      24.9 <NA>    
 9 mbdata 17:1~ choconi~ "\"look to crime~     NA        NA   <NA>    
10 mbdata 17:1~ truthfo~ "lots of cops ho~     36.1      24.9 <NA>    
# ... with 76 more rows

There is less spam now.

Investigate kronosstar.

# Filtering out kronosstar hashtag (ht2_)
ht2_df4 <- df4 %>%
  filter(str_detect(message, '#kronosstar'))
ht2_df4

# A tibble: 56 x 7
   type   dt     author  message           latitude longitude location
   <chr>  <chr>  <chr>   <chr>                <dbl>     <dbl> <chr>   
 1 mbdata 17:00~ Kronos~ "pok rally to st~       NA        NA <NA>    
 2 mbdata 17:10~ Kronos~ "#apd has closed~       NA        NA <NA>    
 3 mbdata 17:30~ Kronos~ "#apd has closed~       NA        NA <NA>    
 4 mbdata 17:40~ junkma~ "he who hesitate~       NA        NA <NA>    
 5 mbdata 17:44~ meds4r~ "he who hesitate~       NA        NA <NA>    
 6 mbdata 17:54~ masked~ "he who hesitate~       NA        NA <NA>    
 7 mbdata 18:42~ Kronos~ "abila fire depa~       NA        NA <NA>    
 8 mbdata 18:44~ Kronos~ "abila police de~       NA        NA <NA>    
 9 mbdata 18:45~ Kronos~ "smoke is coming~       NA        NA <NA>    
10 mbdata 18:46~ Kronos~ "police have arr~       NA        NA <NA>    
# ... with 46 more rows
…
